{
    "title":"Digest",
    "status":"wip",
    "context":{
        "id":"demo-digest",
        "badge":{
            "text":"Art"
        },
        "title":"Electronic Superhighway",
        "body":"Nam June Paik, <em>Electronic Superhighway: Continental U.S., Alaska, Hawaii</em>, 1995, fifty-one channel video installation (including one closed-circuit television feed), custom electronics, neon lighting, steel and wood; color, sound, Smithsonian American Art Museum",
        "image":{
            "sizes":{
                "default":"https://source.unsplash.com/collection/9381430"
            },
            "alt":"An image of the Electronic Superhighway showing all 50 U.S. States",
            "title":"Electronic Superhighway main image"
        }
    },
    "variants":[
        {
            "name":"primary",
            "context":{
                "modifier":"primary",
                "foreground":"light",
                "badge":{
                    "text":"Art",
                    "foreground":"dark"
                }
            }
        },
        {
            "name":"secondary",
            "context":{
                "modifier":"secondary"
            }
        },
        {
            "name":"tertiary",
            "context":{
                "modifier":"tertiary"
            }
        },
        {
            "name":"media-right",
            "context":{
                "modifier":"right"
            }
        },
        {
            "name":"compact",
            "context":{
                "modifier":"compact"
            }
        }
    ]
}